46.148.112.105:8085
79.110.25.143:8085
5.8.37.209:8085
46.148.120.30:8085
46.148.127.203:8085
46.148.127.226:8085
5.101.222.31:8085
146.185.200.36:8085
146.185.200.111:8085
46.161.63.35:8085
93.179.89.5:8085
46.161.62.34:8085
46.161.63.13:8085
46.148.112.179:8085
46.148.120.61:8085
46.161.63.123:8085
46.148.127.86:8085
46.148.127.227:8085
79.110.25.184:8085
79.110.25.176:8085
146.185.200.37:8085
5.8.37.225:8085
46.148.120.96:8085
46.148.127.97:8085
146.185.200.70:8085
5.101.222.63:8085
79.110.25.175:8085
46.161.62.91:8085
146.185.201.103:8085
5.101.222.34:8085
79.110.25.185:8085
46.161.62.54:8085
93.179.89.110:8085
93.179.89.6:8085
46.161.62.105:8085
46.148.127.215:8085
46.148.120.76:8085
5.101.222.124:8085
93.179.89.59:8085
79.110.25.252:8085
5.101.222.14:8085
79.110.25.251:8085
46.148.127.243:8085
5.101.222.55:8085
5.101.222.37:8085
146.185.201.18:8085
146.185.201.34:8085
46.161.63.74:8085
93.179.89.25:8085
79.110.25.196:8085
146.185.201.124:8085
5.101.222.38:8085
146.185.200.6:8085
93.179.89.38:8085
46.161.63.99:8085
46.148.112.118:8085
5.101.222.49:8085
46.148.120.104:8085
146.185.201.93:8085
46.148.127.130:8085
185.14.195.206:8085
46.148.112.126:8085
79.110.25.130:8085
46.148.127.228:8085
93.179.89.74:8085
5.101.217.19:8085
79.110.25.253:8085
46.148.127.237:8085
46.148.112.28:8085
93.179.89.114:8085
46.148.127.144:8085
146.185.200.38:8085
185.14.195.220:8085
185.14.195.136:8085
46.148.120.32:8085
5.101.217.93:8085
146.185.200.75:8085
5.101.217.34:8085
46.161.62.61:8085
46.148.127.191:8085
46.148.112.190:8085
93.179.89.108:8085
146.185.200.7:8085
46.161.62.68:8085
5.8.37.254:8085
146.185.200.89:8085
46.161.62.8:8085
46.148.120.190:8085
5.101.222.54:8085
79.110.25.218:8085
46.161.63.107:8085
5.101.222.111:8085
46.148.120.153:8085
46.161.63.96:8085
46.161.63.73:8085
5.101.217.30:8085
146.185.201.58:8085
5.101.217.54:8085
46.161.63.19:8085
146.185.200.18:8085
146.185.201.46:8085
5.101.222.39:8085
79.110.25.162:8085
46.148.120.155:8085
146.185.201.82:8085
5.101.217.42:8085
185.14.195.252:8085
46.161.63.118:8085
46.148.112.88:8085
46.161.63.28:8085
46.148.112.155:8085
146.185.200.64:8085
46.161.62.63:8085
93.179.89.42:8085
79.110.25.214:8085
46.148.120.54:8085
146.185.200.76:8085
185.14.195.228:8085
5.101.217.28:8085
93.179.89.7:8085
146.185.200.122:8085
93.179.89.89:8085
93.179.89.105:8085
46.161.63.30:8085
5.101.222.43:8085
5.101.217.126:8085
5.8.37.207:8085
46.148.112.111:8085
46.148.112.141:8085
46.161.63.5:8085
46.148.112.82:8085
146.185.200.26:8085
185.14.195.140:8085
93.179.89.84:8085
185.14.195.212:8085
93.179.89.122:8085
46.148.112.115:8085
46.148.127.214:8085
46.161.62.29:8085
46.148.112.22:8085
46.161.62.98:8085
46.148.112.47:8085
5.101.217.12:8085
5.101.217.123:8085
146.185.200.54:8085
79.110.25.231:8085
185.14.195.144:8085
46.148.127.123:8085
46.161.62.32:8085
5.101.217.78:8085
5.101.217.89:8085
146.185.201.90:8085
93.179.89.56:8085
46.148.120.15:8085
46.148.120.178:8085
185.14.195.171:8085
146.185.201.92:8085
79.110.25.171:8085
5.101.222.78:8085
93.179.89.61:8085
93.179.89.64:8085
46.148.112.33:8085
46.148.112.80:8085
5.8.37.231:8085
5.8.37.232:8085
5.8.37.250:8085
185.14.195.172:8085
46.148.112.26:8085
46.148.112.120:8085
46.148.127.201:8085
46.161.63.68:8085
5.101.222.30:8085
46.148.112.27:8085
5.101.222.98:8085
46.148.120.93:8085
46.161.63.37:8085
5.8.37.218:8085
146.185.200.80:8085
46.148.127.138:8085
5.101.222.48:8085
46.148.120.120:8085
5.101.217.44:8085
93.179.89.20:8085
5.101.217.95:8085
5.101.217.101:8085
93.179.89.80:8085
146.185.201.48:8085
46.148.127.141:8085
46.161.62.89:8085
185.14.195.233:8085
146.185.201.56:8085
46.161.63.93:8085
46.148.120.114:8085
5.101.222.96:8085
46.148.127.145:8085
79.110.25.206:8085
5.101.217.117:8085
79.110.25.254:8085
46.148.112.32:8085
46.161.62.12:8085
5.8.37.237:8085
185.14.195.154:8085
146.185.200.57:8085
5.101.222.28:8085
146.185.201.13:8085
146.185.200.67:8085
46.148.112.44:8085
185.14.195.185:8085
146.185.200.99:8085
79.110.25.189:8085
146.185.200.123:8085
93.179.89.107:8085
46.161.62.124:8085
79.110.25.245:8085
146.185.201.12:8085
146.185.200.107:8085
46.148.112.186:8085
46.148.120.20:8085
5.101.222.76:8085
146.185.201.80:8085
79.110.25.227:8085
185.14.195.235:8085
46.148.127.229:8085
46.148.120.179:8085
5.101.222.44:8085
46.148.120.53:8085
46.148.112.68:8085
46.148.112.178:8085
79.110.25.174:8085
5.101.217.104:8085
46.148.120.59:8085
46.148.112.58:8085
5.101.217.48:8085
146.185.201.86:8085
46.161.62.42:8085
46.148.120.79:8085
146.185.201.87:8085
185.14.195.245:8085
46.148.112.136:8085
46.148.112.150:8085
5.101.217.15:8085
146.185.201.69:8085
146.185.200.8:8085
146.185.201.119:8085
146.185.201.123:8085
5.101.222.35:8085
5.101.217.108:8085
79.110.25.221:8085
146.185.200.48:8085
46.148.112.151:8085
185.14.195.223:8085
146.185.201.29:8085
46.148.112.29:8085
5.101.222.116:8085
46.161.62.77:8085
46.148.127.184:8085
46.148.112.67:8085
46.148.112.104:8085
46.148.120.118:8085
146.185.201.68:8085
46.148.120.97:8085
46.148.112.55:8085
46.161.62.19:8085
93.179.89.62:8085
5.101.217.14:8085
46.161.63.15:8085
146.185.200.39:8085
79.110.25.153:8085
79.110.25.135:8085
46.148.120.17:8085
79.110.25.167:8085
46.148.120.23:8085
46.148.112.135:8085
46.148.127.83:8085
46.148.112.148:8085
93.179.89.78:8085
185.14.195.158:8085
93.179.89.77:8085
185.14.195.147:8085
146.185.200.100:8085
46.148.112.87:8085
79.110.25.186:8085
185.14.195.189:8085
79.110.25.243:8085
5.8.37.226:8085
5.101.222.47:8085
46.148.127.187:8085
185.14.195.156:8085
79.110.25.134:8085
146.185.200.16:8085
79.110.25.233:8085
46.148.120.80:8085
93.179.89.33:8085
46.148.127.205:8085
146.185.201.21:8085
46.148.120.78:8085
46.148.120.133:8085
46.148.127.251:8085
46.148.112.181:8085
46.148.120.57:8085
146.185.201.106:8085
46.148.112.165:8085
46.148.120.137:8085
185.14.195.197:8085
146.185.200.112:8085
46.148.127.108:8085
185.14.195.236:8085
93.179.89.45:8085
46.161.62.18:8085
46.161.63.100:8085
146.185.200.24:8085
146.185.201.42:8085
93.179.89.31:8085
46.161.62.94:8085
46.148.120.147:8085
5.101.217.79:8085
146.185.201.85:8085
146.185.201.49:8085
5.101.222.112:8085
46.161.62.31:8085
93.179.89.85:8085
46.148.112.149:8085
79.110.25.219:8085
46.148.127.124:8085
5.101.217.122:8085
5.8.37.233:8085
146.185.201.112:8085
46.161.62.59:8085
5.101.222.83:8085
46.148.120.149:8085
46.161.62.78:8085
79.110.25.198:8085
79.110.25.164:8085
46.148.127.179:8085
46.148.127.233:8085
46.148.120.29:8085
46.148.120.107:8085
5.8.37.239:8085
46.148.127.199:8085
46.148.112.11:8085
5.101.222.92:8085
46.148.120.139:8085
185.14.195.175:8085
146.185.200.77:8085
46.148.127.217:8085
93.179.89.92:8085
5.101.222.40:8085
46.148.112.66:8085
146.185.201.67:8085
185.14.195.173:8085
